

    目录: C:\Users\yw\Desktop\feipeng20180329-0\报告模板\images


Mode                LastWriteTime         Length Name                                                                                  
----                -------------         ------ ----                                                                                  
-a----        2018/4/24     10:58         112898 fastqc_overrepresented_sequencesi_plot (1).png                                        
-a----        2018/4/24     10:39         112898 fastqc_overrepresented_sequencesi_plot.png                                            
-a----        2018/4/24     10:58         175375 fastqc_per_base_n_content_plot (1).png                                                
-a----        2018/4/24     10:40         175375 fastqc_per_base_n_content_plot.png                                                    
-a----        2018/4/24     10:58         146603 fastqc_per_base_sequence_quality_plot (1).png                                         
-a----        2018/4/24     10:40         146603 fastqc_per_base_sequence_quality_plot.png                                             
-a----        2018/4/24     10:58         140487 fastqc_per_sequence_gc_content_plot (1).png                                           
-a----        2018/4/24     10:40         140487 fastqc_per_sequence_gc_content_plot.png                                               
-a----        2018/4/24     10:58         188692 fastqc_per_sequence_quality_scores_plot (1).png                                       
-a----        2018/4/24     10:40         188692 fastqc_per_sequence_quality_scores_plot.png                                           
-a----        2018/4/24     10:58          62330 fastqc_sequence_duplication_levels_plot (1).png                                       
-a----        2018/4/24     10:40          62330 fastqc_sequence_duplication_levels_plot.png                                           
-a----        2018/4/24     10:58          72574 fastqc_sequence_length_distribution_plot (1).png                                      
-a----        2018/4/24     10:40          72574 fastqc_sequence_length_distribution_plot.png                                          
-a----         2018/5/7     15:19              0 filename.txt                                                                          
-a----        2018/4/24     10:58          64894 qualimap_coverage_histogram (1).png                                                   
-a----        2018/4/24     10:39          64894 qualimap_coverage_histogram.png                                                       
-a----        2018/4/24     10:58          67405 qualimap_gc_content (1).png                                                           
-a----        2018/4/24     10:39          67405 qualimap_gc_content.png                                                               
-a----        2018/4/24     10:58          67575 qualimap_genome_fraction (1).png                                                      
-a----        2018/4/24     10:39          67575 qualimap_genome_fraction.png                                                          
-a----        2018/4/24     10:58          76260 qualimap_insert_size (1).png                                                          
-a----        2018/4/24     10:39          76260 qualimap_insert_size.png                                                              
-a----         2018/5/7     15:08           8422 test.json                                                                             


